{
  "access_token": "ya29.Glw_Bxbb3UJ-hfIfsirK93euOs6j7FDlt9yyHOE5gs87jLy8W1JRD8lEYzMGsBJvTUP3Zq4_yhs7V2H5XcDurLQ_EMBakn49z3gBl4UDOTEg_V_oeRT3iiwrvOqVkA",
  "scope": "https://www.googleapis.com/auth/calendar.readonly",
  "token_type": "Bearer",
  "expiry_date": 1562591139643,
  "refresh_token": "1/n8xCdK1e7cUopm8cTaSscTq9OJZ8rLHKsyeuXvBsSx0"
}
